{
  "project_info": {
    "project_number": "71750513516",
    "firebase_url": "https://fir-1221e.firebaseio.com",
    "project_id": "fir-1221e",
    "storage_bucket": "fir-1221e.appspot.com"
  },
  "client": [
    {
      "client_info": {
        "mobilesdk_app_id": "1:71750513516:android:cc279e182affa00cab7949",
        "android_client_info": {
          "package_name": "com.fireau"
        }
      },
      "oauth_client": [
        {
          "client_id": "71750513516-02uu27lsf929j41tf0a7if6e7p43p17h.apps.googleusercontent.com",
          "client_type": 1,
          "android_info": {
            "package_name": "com.fireau",
            "certificate_hash": "5e8f16062ea3cd2c4a0d547876baa6f38cabf625"
          }
        },
        {
          "client_id": "71750513516-5p2mh79e8f8n48vfsgfhkq28hmgbf6u9.apps.googleusercontent.com",
          "client_type": 3
        }
      ],
      "api_key": [
        {
          "current_key": "AIzaSyBtfYFpcF1Tq9O3QLg9sFPfCVJoZUEzbhI"
        }
      ],
      "services": {
        "appinvite_service": {
          "other_platform_oauth_client": [
            {
              "client_id": "71750513516-5p2mh79e8f8n48vfsgfhkq28hmgbf6u9.apps.googleusercontent.com",
              "client_type": 3
            }
          ]
        }
      }
    }
  ],
  "configuration_version": "1"
}